{
    "test" : {
        "PORT":3000,
        "MONGODB_URI": "mongodb://localhost:27017/TodoAppTest",
        "JWT_SECRET": "ana 22om bleel la2 22om bl sob7 3ala 9 9 w nos y3ny"
    },
    "development" : {
        "PORT":3000,
        "MONGODB_URI": "mongodb://localhost:27017/TodoApp",
        "JWT_SECRET": "ana 22om bleel la2 22om bl sob7 3ala 9 9 w nos y3ny momkn 10"
    }
}